
| Loading Grails 2.2.5
| Configuring classpath
| Configuring classpath.
| Environment set to test
| Environment set to test.
| Environment set to test..
| Environment set to test...
| Environment set to test....
| Environment set to test.....
| Packaging Grails application
| Packaging Grails application.
| Packaging Grails application..
| Packaging Grails application...
| Packaging Grails application....
| Packaging Grails application.....
| Compiling 2 source files
| Compiling 2 source files.
| Compiling 2 source files..
| Compiling 2 source files...
| Compiling 2 source files....
| Compiling 2 source files....
| Compiling 2 source files.....
| Compiling 2 source files.....
| Compiling 2 source files.....
| Running Grails application
Configuring Activiti Process Engine ...
... finished configuring Activiti Process Engine.
Activiti Process Engine with Shiro Security Initialization ...
| Error 2014-10-14 10:40:10,566 [localhost-startStop-1] ERROR hbm2ddl.SchemaUpdate  - Unsuccessful: create table  M017_STAHADIR (id number(19,0) not null, version number(19,0) not null, created_by varchar2(255 char) not null, date_created timestamp not null, last_upd_process varchar2(255 char) not null, last_updated timestamp not null, M017_ID char(2) not null unique, M017_NamaStaHadir varchar(20) not null, M017_StaDel char(1) not null, updated_by varchar2(255 char), primary key (id))
| Error 2014-10-14 10:40:10,567 [localhost-startStop-1] ERROR hbm2ddl.SchemaUpdate  - ORA-00955: name is already used by an existing object

| Error 2014-10-14 10:40:10,568 [localhost-startStop-1] ERROR hbm2ddl.SchemaUpdate  - Unsuccessful: create table  M058_STATUSWARRANTY (id number(19,0) not null, version number(19,0) not null, created_by varchar2(255 char) not null, date_created timestamp not null, last_upd_process varchar2(255 char) not null, last_updated timestamp not null, M058_ID int not null unique, M058_NamaStatusWarranty varchar(50) not null, updated_by varchar2(255 char), primary key (id))
| Error 2014-10-14 10:40:10,568 [localhost-startStop-1] ERROR hbm2ddl.SchemaUpdate  - ORA-00955: name is already used by an existing object

| Error 2014-10-14 10:40:10,569 [localhost-startStop-1] ERROR hbm2ddl.SchemaUpdate  - Unsuccessful: create table  M062_NIKAH (id number(19,0) not null, version number(19,0) not null, created_by varchar2(255 char) not null, date_created timestamp not null, last_upd_process varchar2(255 char) not null, last_updated timestamp not null, M062_ID char(2) not null, M062_staNikah varchar(20) not null, M062_staDel char(1) not null, updated_by varchar2(255 char), primary key (id))
| Error 2014-10-14 10:40:10,569 [localhost-startStop-1] ERROR hbm2ddl.SchemaUpdate  - ORA-00955: name is already used by an existing object

| Error 2014-10-14 10:40:10,577 [localhost-startStop-1] ERROR hbm2ddl.SchemaUpdate  - Unsuccessful: alter table M011_COMPANYTAM add M011_Alamat  varchar(100) not null
| Error 2014-10-14 10:40:10,577 [localhost-startStop-1] ERROR hbm2ddl.SchemaUpdate  - ORA-01430: column being added already exists in table

| Error 2014-10-14 10:40:10,583 [localhost-startStop-1] ERROR hbm2ddl.SchemaUpdate  - Unsuccessful: alter table M011_COMPANYTAM add M011_Fax  varchar(20)
| Error 2014-10-14 10:40:10,583 [localhost-startStop-1] ERROR hbm2ddl.SchemaUpdate  - ORA-01430: column being added already exists in table

| Error 2014-10-14 10:40:10,589 [localhost-startStop-1] ERROR hbm2ddl.SchemaUpdate  - Unsuccessful: alter table M011_COMPANYTAM add M011_StaBPCenter  char(1)
| Error 2014-10-14 10:40:10,589 [localhost-startStop-1] ERROR hbm2ddl.SchemaUpdate  - ORA-01430: column being added already exists in table

| Error 2014-10-14 10:40:10,590 [localhost-startStop-1] ERROR hbm2ddl.SchemaUpdate  - Unsuccessful: create table M035_LEADTIME (id number(19,0) not null, version number(19,0) not null, M035_M011_ID number(19,0) not null, created_by varchar2(255 char) not null, date_created timestamp not null, last_upd_process varchar2(255 char) not null, last_updated timestamp not null, M035_Delivery time not null, M035_Invoicing time not null, M035_JobStopped time not null, M035_LTFinalInspection time not null, M035_LTIDR time not null, M035_LTPreDiagnose time not null, M035_LTProduction time not null, M035_LTReception time not null, M035_TglNerlaku date not null unique, M035_WFClockOn time not null, M035_WFDelivery time not null, M035_WFFinalInspection time not null, M035_WFInvoicing time not null, M035_WFJobDispatch time not null, M035_WFNotifikasi time not null, M035_WFReception time not null, M035_WFWashhing time not null, M035_Washing time not null, M035_StaDel char(1) not null, updated_by varchar2(255 char), primary key (id))
| Error 2014-10-14 10:40:10,590 [localhost-startStop-1] ERROR hbm2ddl.SchemaUpdate  - ORA-00902: invalid datatype

| Error 2014-10-14 10:40:10,591 [localhost-startStop-1] ERROR hbm2ddl.SchemaUpdate  - Unsuccessful: create table T165_ETA (id number(19,0) not null, version number(19,0) not null, company_dealer_id number(19,0), created_by varchar2(255 char), date_created timestamp not null, T165_T164_T163_T162_M111_ID number(19,0), last_upd_process varchar2(255 char), last_updated timestamp not null, T165_T164_NoPO number(19,0), T165_StaDel char(1), T165_ETA datetime, T165_ID char(20), T165_Qty1 double precision, T165_Qty2 double precision, T165_xNamaDivisi varchar(20), T165_xNamaUser varchar(20), updated_by varchar2(255 char), primary key (id))
| Error 2014-10-14 10:40:10,591 [localhost-startStop-1] ERROR hbm2ddl.SchemaUpdate  - ORA-00902: invalid datatype

| Error 2014-10-14 10:40:10,595 [localhost-startStop-1] ERROR hbm2ddl.SchemaUpdate  - Unsuccessful: alter table T451_JPB add T451_M071_ID  number(19,0)
| Error 2014-10-14 10:40:10,596 [localhost-startStop-1] ERROR hbm2ddl.SchemaUpdate  - ORA-01430: column being added already exists in table

| Error 2014-10-14 10:40:10,602 [localhost-startStop-1] ERROR hbm2ddl.SchemaUpdate  - Unsuccessful: alter table T701_INVOICE add T701_RequestGoodWillPersen  double precision not null
| Error 2014-10-14 10:40:10,602 [localhost-startStop-1] ERROR hbm2ddl.SchemaUpdate  - ORA-01430: column being added already exists in table

| Error 2014-10-14 10:40:10,605 [localhost-startStop-1] ERROR hbm2ddl.SchemaUpdate  - Unsuccessful: alter table M035_LEADTIME add constraint FKFC9904036A74D829 foreign key (M035_M011_ID) references M011_COMPANYTAM
| Error 2014-10-14 10:40:10,605 [localhost-startStop-1] ERROR hbm2ddl.SchemaUpdate  - ORA-00942: table or view does not exist

| Error 2014-10-14 10:40:10,610 [localhost-startStop-1] ERROR hbm2ddl.SchemaUpdate  - Unsuccessful: alter table MH009_KRYWAN add constraint FK1296C65358454D4F foreign key (MH009_M002_ID_KOTA) references M002_KABKOTA
| Error 2014-10-14 10:40:10,610 [localhost-startStop-1] ERROR hbm2ddl.SchemaUpdate  - ORA-02267: column type incompatible with referenced column type

| Error 2014-10-14 10:40:10,615 [localhost-startStop-1] ERROR hbm2ddl.SchemaUpdate  - Unsuccessful: alter table MH009_KRYWAN add constraint FK1296C6538DE56153 foreign key (MH009_M002_ID_KOTALAHIR) references M002_KABKOTA
| Error 2014-10-14 10:40:10,615 [localhost-startStop-1] ERROR hbm2ddl.SchemaUpdate  - ORA-02267: column type incompatible with referenced column type

| Error 2014-10-14 10:40:10,620 [localhost-startStop-1] ERROR hbm2ddl.SchemaUpdate  - Unsuccessful: alter table MH009_KRYWAN add constraint FK1296C6537DE147FA foreign key (M009_M062_ID_NIKAH) references  M062_NIKAH
| Error 2014-10-14 10:40:10,620 [localhost-startStop-1] ERROR hbm2ddl.SchemaUpdate  - ORA-02275: such a referential constraint already exists in the table

| Error 2014-10-14 10:40:10,624 [localhost-startStop-1] ERROR hbm2ddl.SchemaUpdate  - Unsuccessful: alter table T017_MANPOWERABSENSI add constraint FKC639C109D3D40925 foreign key (T017_M017_ID) references  M017_STAHADIR
| Error 2014-10-14 10:40:10,625 [localhost-startStop-1] ERROR hbm2ddl.SchemaUpdate  - ORA-02275: such a referential constraint already exists in the table

| Error 2014-10-14 10:40:10,630 [localhost-startStop-1] ERROR hbm2ddl.SchemaUpdate  - Unsuccessful: alter table T101_COMPANY add constraint FK24F15E3CE65E676A foreign key (T101_JenisPerusahaan) references JENISPERUSAHAAN
| Error 2014-10-14 10:40:10,630 [localhost-startStop-1] ERROR hbm2ddl.SchemaUpdate  - ORA-02267: column type incompatible with referenced column type

| Error 2014-10-14 10:40:10,637 [localhost-startStop-1] ERROR hbm2ddl.SchemaUpdate  - Unsuccessful: alter table T107_BILLTO add constraint FKD187003D88FCFB1A foreign key (T107_M062_ID) references  M062_NIKAH
| Error 2014-10-14 10:40:10,637 [localhost-startStop-1] ERROR hbm2ddl.SchemaUpdate  - ORA-02275: such a referential constraint already exists in the table

| Error 2014-10-14 10:40:10,638 [localhost-startStop-1] ERROR hbm2ddl.SchemaUpdate  - Unsuccessful: alter table T165_ETA add constraint FK9530DC8F8B29DF52 foreign key (T165_T164_NoPO) references T164_PO
| Error 2014-10-14 10:40:10,639 [localhost-startStop-1] ERROR hbm2ddl.SchemaUpdate  - ORA-00942: table or view does not exist

| Error 2014-10-14 10:40:10,640 [localhost-startStop-1] ERROR hbm2ddl.SchemaUpdate  - Unsuccessful: alter table T165_ETA add constraint FK9530DC8FEBC38058 foreign key (T165_T164_T163_T162_M111_ID) references M111_GOODS
| Error 2014-10-14 10:40:10,640 [localhost-startStop-1] ERROR hbm2ddl.SchemaUpdate  - ORA-00942: table or view does not exist

| Error 2014-10-14 10:40:10,641 [localhost-startStop-1] ERROR hbm2ddl.SchemaUpdate  - Unsuccessful: alter table T165_ETA add constraint FK9530DC8FED709F0B foreign key (company_dealer_id) references M011_COMPANYTAM
| Error 2014-10-14 10:40:10,641 [localhost-startStop-1] ERROR hbm2ddl.SchemaUpdate  - ORA-00942: table or view does not exist

| Error 2014-10-14 10:40:10,647 [localhost-startStop-1] ERROR hbm2ddl.SchemaUpdate  - Unsuccessful: alter table T182_HISTORYCUSTOMER add constraint FK6E54622A45F2590D foreign key (T182_M062_ID) references  M062_NIKAH
| Error 2014-10-14 10:40:10,647 [localhost-startStop-1] ERROR hbm2ddl.SchemaUpdate  - ORA-02275: such a referential constraint already exists in the table

| Error 2014-10-14 10:40:10,651 [localhost-startStop-1] ERROR hbm2ddl.SchemaUpdate  - Unsuccessful: alter table T301_JOBAPP add constraint FK58C971C3442AFA41 foreign key (T302_M058_ID) references  M058_STATUSWARRANTY
| Error 2014-10-14 10:40:10,651 [localhost-startStop-1] ERROR hbm2ddl.SchemaUpdate  - ORA-02275: such a referential constraint already exists in the table

| Error 2014-10-14 10:40:10,656 [localhost-startStop-1] ERROR hbm2ddl.SchemaUpdate  - Unsuccessful: alter table T402_JOBRCP add constraint FKB4F44DFFD90FAD02 foreign key (T402_M058_ID) references  M058_STATUSWARRANTY
| Error 2014-10-14 10:40:10,656 [localhost-startStop-1] ERROR hbm2ddl.SchemaUpdate  - ORA-02275: such a referential constraint already exists in the table

| Error 2014-10-14 10:40:10,661 [localhost-startStop-1] ERROR hbm2ddl.SchemaUpdate  - Unsuccessful: alter table T451_JPB add constraint FK31F669F98FBDDC32 foreign key (T451_M071_ID ) references M071_ALASANREFUND
| Error 2014-10-14 10:40:10,661 [localhost-startStop-1] ERROR hbm2ddl.SchemaUpdate  - ORA-02275: such a referential constraint already exists in the table

| Error 2014-10-14 10:40:10,666 [localhost-startStop-1] ERROR hbm2ddl.SchemaUpdate  - Unsuccessful: alter table TH001_HISTORYREWARDKARYAWAN add constraint FKC2C384A1377C0ED9 foreign key (TH001_MH009_ID_KARYAWAN) references MH009_KRYWAN
| Error 2014-10-14 10:40:10,666 [localhost-startStop-1] ERROR hbm2ddl.SchemaUpdate  - ORA-02264: name already used by an existing constraint

| Error 2014-10-14 10:40:10,671 [localhost-startStop-1] ERROR hbm2ddl.SchemaUpdate  - Unsuccessful: alter table TH002_HISTORYWARNINGKARYAWAN add constraint FK591A129526709A foreign key (TH002_MH009_ID_KARYAWAN) references MH009_KRYWAN
| Error 2014-10-14 10:40:10,671 [localhost-startStop-1] ERROR hbm2ddl.SchemaUpdate  - ORA-02264: name already used by an existing constraint

| Error 2014-10-14 10:40:10,676 [localhost-startStop-1] ERROR hbm2ddl.SchemaUpdate  - Unsuccessful: alter table TH003_HISTORYKARYAWAN add constraint FK2EF779F4D2D0D25B foreign key (TH003_MH009_ID_KARYAWAN) references MH009_KRYWAN
| Error 2014-10-14 10:40:10,676 [localhost-startStop-1] ERROR hbm2ddl.SchemaUpdate  - ORA-02264: name already used by an existing constraint

| Error 2014-10-14 10:40:10,681 [localhost-startStop-1] ERROR hbm2ddl.SchemaUpdate  - Unsuccessful: alter table TH004_ABSENSIKARYAWAN add constraint FK85460A92A07B341C foreign key (TH004_MH009_ID_KARYAWAN) references MH009_KRYWAN
| Error 2014-10-14 10:40:10,682 [localhost-startStop-1] ERROR hbm2ddl.SchemaUpdate  - ORA-02264: name already used by an existing constraint

| Error 2014-10-14 10:40:10,687 [localhost-startStop-1] ERROR hbm2ddl.SchemaUpdate  - Unsuccessful: alter table TH005_TUGASLUARKARYAWAN add constraint FK21C0C3146E2595DD foreign key (TH005_MH009_ID_KARYAWAN) references MH009_KRYWAN
| Error 2014-10-14 10:40:10,687 [localhost-startStop-1] ERROR hbm2ddl.SchemaUpdate  - ORA-02264: name already used by an existing constraint

| Error 2014-10-14 10:40:10,692 [localhost-startStop-1] ERROR hbm2ddl.SchemaUpdate  - Unsuccessful: alter table TH006_CUTIKARYAWAN add constraint FKCCF41BC43BCFF79E foreign key (TH006_MH009_ID_KARYAWAN) references MH009_KRYWAN
| Error 2014-10-14 10:40:10,692 [localhost-startStop-1] ERROR hbm2ddl.SchemaUpdate  - ORA-02264: name already used by an existing constraint

| Error 2014-10-14 10:40:10,697 [localhost-startStop-1] ERROR hbm2ddl.SchemaUpdate  - Unsuccessful: alter table TH007_SISACUTIKARYAWAN add constraint FKB505088797A595F foreign key (TH007_MH009_ID_KARYAWAN) references MH009_KRYWAN
| Error 2014-10-14 10:40:10,697 [localhost-startStop-1] ERROR hbm2ddl.SchemaUpdate  - ORA-02264: name already used by an existing constraint

| Error 2014-10-14 10:40:10,702 [localhost-startStop-1] ERROR hbm2ddl.SchemaUpdate  - Unsuccessful: alter table TH008_ABSENSIKARYAWANDETAIL add constraint FKC327C667D724BB20 foreign key (TH008_MH009_ID_KARYAWAN) references MH009_KRYWAN
| Error 2014-10-14 10:40:10,702 [localhost-startStop-1] ERROR hbm2ddl.SchemaUpdate  - ORA-02264: name already used by an existing constraint

| Error 2014-10-14 10:40:10,707 [localhost-startStop-1] ERROR hbm2ddl.SchemaUpdate  - Unsuccessful: alter table TH020_TRAININGINSTRUCTOR add constraint FK226E91DC391559D6 foreign key (TH020_MH009_ID_KARYAWAN) references MH009_KRYWAN
| Error 2014-10-14 10:40:10,707 [localhost-startStop-1] ERROR hbm2ddl.SchemaUpdate  - ORA-02264: name already used by an existing constraint

| Error 2014-10-14 10:40:10,712 [localhost-startStop-1] ERROR hbm2ddl.SchemaUpdate  - Unsuccessful: alter table TH022_TRAININGMEMBER add constraint FK58374717D46A1D58 foreign key (TH022_MH009_ID_KARYAWAN) references MH009_KRYWAN
| Error 2014-10-14 10:40:10,712 [localhost-startStop-1] ERROR hbm2ddl.SchemaUpdate  - ORA-02264: name already used by an existing constraint

| Error 2014-10-14 10:40:10,717 [localhost-startStop-1] ERROR hbm2ddl.SchemaUpdate  - Unsuccessful: alter table TH023_SERTIFIKASIKARYAWAN add constraint FKC974B322A2147F19 foreign key (TH023_MH009_ID_KARYAWAN) references MH009_KRYWAN
| Error 2014-10-14 10:40:10,717 [localhost-startStop-1] ERROR hbm2ddl.SchemaUpdate  - ORA-02264: name already used by an existing constraint

| Error 2014-10-14 10:40:26,264 [localhost-startStop-1] ERROR context.GrailsContextLoader  - Error initializing the application: Error creating bean with name 'activitiService': Cannot resolve reference to bean 'runtimeService' while setting bean property 'runtimeService'; nested exception is org.springframework.beans.factory.BeanCreationException: Error creating bean with name 'processEngine': FactoryBean threw exception on object creation; nested exception is java.lang.NullPointerException
Message: Error creating bean with name 'activitiService': Cannot resolve reference to bean 'runtimeService' while setting bean property 'runtimeService'; nested exception is org.springframework.beans.factory.BeanCreationException: Error creating bean with name 'processEngine': FactoryBean threw exception on object creation; nested exception is java.lang.NullPointerException
    Line | Method
->>  262 | run       in java.util.concurrent.FutureTask
- - - - - - - - - - - - - - - - - - - - - - - - - - - - - - - - - - - - 
|   1145 | runWorker in java.util.concurrent.ThreadPoolExecutor
|    615 | run . . . in java.util.concurrent.ThreadPoolExecutor$Worker
^    745 | run       in java.lang.Thread

Caused by BeanCreationException: Error creating bean with name 'processEngine': FactoryBean threw exception on object creation; nested exception is java.lang.NullPointerException
->>  262 | run       in java.util.concurrent.FutureTask
- - - - - - - - - - - - - - - - - - - - - - - - - - - - - - - - - - - - 
|   1145 | runWorker in java.util.concurrent.ThreadPoolExecutor
|    615 | run . . . in java.util.concurrent.ThreadPoolExecutor$Worker
^    745 | run       in java.lang.Thread

Caused by NullPointerException: null
->>   72 | deploymentsDiffer in org.activiti.engine.impl.cmd.DeployCmd
- - - - - - - - - - - - - - - - - - - - - - - - - - - - - - - - - - - - 
|     50 | execute   in     ''
|     30 | execute . in     ''
|     24 | execute   in org.activiti.engine.impl.interceptor.CommandExecutorImpl
|     42 | execute . in org.activiti.engine.impl.interceptor.CommandContextInterceptor
|     40 | execute   in org.activiti.spring.SpringTransactionInterceptor
|     33 | execute . in org.activiti.engine.impl.interceptor.LogInterceptor
|     46 | deploy    in org.activiti.engine.impl.RepositoryServiceImpl
|    106 | deploy .  in org.activiti.engine.impl.repository.DeploymentBuilderImpl
|    142 | autoDeployResources in org.activiti.spring.SpringProcessEngineConfiguration
|     61 | buildProcessEngine in     ''
|     56 | getObject in org.activiti.spring.ProcessEngineFactoryBean
|     32 | getObject in     ''
|    262 | run       in java.util.concurrent.FutureTask
|   1145 | runWorker in java.util.concurrent.ThreadPoolExecutor
|    615 | run       in java.util.concurrent.ThreadPoolExecutor$Worker
^    745 | run . . . in java.lang.Thread
| Error 2014-10-14 10:40:26,351 [localhost-startStop-1] ERROR context.GrailsContextLoader  - Error initializing Grails: Error creating bean with name 'activitiService': Cannot resolve reference to bean 'runtimeService' while setting bean property 'runtimeService'; nested exception is org.springframework.beans.factory.BeanCreationException: Error creating bean with name 'processEngine': FactoryBean threw exception on object creation; nested exception is java.lang.NullPointerException
Message: Error creating bean with name 'activitiService': Cannot resolve reference to bean 'runtimeService' while setting bean property 'runtimeService'; nested exception is org.springframework.beans.factory.BeanCreationException: Error creating bean with name 'processEngine': FactoryBean threw exception on object creation; nested exception is java.lang.NullPointerException
    Line | Method
->>  262 | run       in java.util.concurrent.FutureTask
- - - - - - - - - - - - - - - - - - - - - - - - - - - - - - - - - - - - 
|   1145 | runWorker in java.util.concurrent.ThreadPoolExecutor
|    615 | run . . . in java.util.concurrent.ThreadPoolExecutor$Worker
^    745 | run       in java.lang.Thread

Caused by BeanCreationException: Error creating bean with name 'processEngine': FactoryBean threw exception on object creation; nested exception is java.lang.NullPointerException
->>  262 | run       in java.util.concurrent.FutureTask
- - - - - - - - - - - - - - - - - - - - - - - - - - - - - - - - - - - - 
|   1145 | runWorker in java.util.concurrent.ThreadPoolExecutor
|    615 | run . . . in java.util.concurrent.ThreadPoolExecutor$Worker
^    745 | run       in java.lang.Thread

Caused by NullPointerException: null
->>   72 | deploymentsDiffer in org.activiti.engine.impl.cmd.DeployCmd
- - - - - - - - - - - - - - - - - - - - - - - - - - - - - - - - - - - - 
|     50 | execute   in     ''
|     30 | execute . in     ''
|     24 | execute   in org.activiti.engine.impl.interceptor.CommandExecutorImpl
|     42 | execute . in org.activiti.engine.impl.interceptor.CommandContextInterceptor
|     40 | execute   in org.activiti.spring.SpringTransactionInterceptor
|     33 | execute . in org.activiti.engine.impl.interceptor.LogInterceptor
|     46 | deploy    in org.activiti.engine.impl.RepositoryServiceImpl
|    106 | deploy .  in org.activiti.engine.impl.repository.DeploymentBuilderImpl
|    142 | autoDeployResources in org.activiti.spring.SpringProcessEngineConfiguration
|     61 | buildProcessEngine in     ''
|     56 | getObject in org.activiti.spring.ProcessEngineFactoryBean
|     32 | getObject in     ''
|    262 | run       in java.util.concurrent.FutureTask
|   1145 | runWorker in java.util.concurrent.ThreadPoolExecutor
|    615 | run       in java.util.concurrent.ThreadPoolExecutor$Worker
^    745 | run . . . in java.lang.Thread
| Error 2014-10-14 10:40:26,359 [localhost-startStop-1] ERROR [localhost].[/dms]  - Exception sending context initialized event to listener instance of class org.codehaus.groovy.grails.web.context.GrailsContextLoaderListener
Message: Error creating bean with name 'activitiService': Cannot resolve reference to bean 'runtimeService' while setting bean property 'runtimeService'; nested exception is org.springframework.beans.factory.BeanCreationException: Error creating bean with name 'processEngine': FactoryBean threw exception on object creation; nested exception is java.lang.NullPointerException
    Line | Method
->>  262 | run       in java.util.concurrent.FutureTask
- - - - - - - - - - - - - - - - - - - - - - - - - - - - - - - - - - - - 
|   1145 | runWorker in java.util.concurrent.ThreadPoolExecutor
|    615 | run . . . in java.util.concurrent.ThreadPoolExecutor$Worker
^    745 | run       in java.lang.Thread

Caused by BeanCreationException: Error creating bean with name 'processEngine': FactoryBean threw exception on object creation; nested exception is java.lang.NullPointerException
->>  262 | run       in java.util.concurrent.FutureTask
- - - - - - - - - - - - - - - - - - - - - - - - - - - - - - - - - - - - 
|   1145 | runWorker in java.util.concurrent.ThreadPoolExecutor
|    615 | run . . . in java.util.concurrent.ThreadPoolExecutor$Worker
^    745 | run       in java.lang.Thread

Caused by NullPointerException: null
->>   72 | deploymentsDiffer in org.activiti.engine.impl.cmd.DeployCmd
- - - - - - - - - - - - - - - - - - - - - - - - - - - - - - - - - - - - 
|     50 | execute   in     ''
|     30 | execute . in     ''
|     24 | execute   in org.activiti.engine.impl.interceptor.CommandExecutorImpl
|     42 | execute . in org.activiti.engine.impl.interceptor.CommandContextInterceptor
|     40 | execute   in org.activiti.spring.SpringTransactionInterceptor
|     33 | execute . in org.activiti.engine.impl.interceptor.LogInterceptor
|     46 | deploy    in org.activiti.engine.impl.RepositoryServiceImpl
|    106 | deploy .  in org.activiti.engine.impl.repository.DeploymentBuilderImpl
|    142 | autoDeployResources in org.activiti.spring.SpringProcessEngineConfiguration
|     61 | buildProcessEngine in     ''
|     56 | getObject in org.activiti.spring.ProcessEngineFactoryBean
|     32 | getObject in     ''
|    262 | run       in java.util.concurrent.FutureTask
|   1145 | runWorker in java.util.concurrent.ThreadPoolExecutor
|    615 | run       in java.util.concurrent.ThreadPoolExecutor$Worker
^    745 | run . . . in java.lang.Thread
| Error 2014-10-14 10:40:26,365 [localhost-startStop-1] ERROR core.StandardContext  - Error listenerStart
| Error 2014-10-14 10:40:26,369 [localhost-startStop-1] ERROR core.StandardContext  - Context [/dms] startup failed due to previous errors
| Server running. Browse to http://localhost:8881/dms
Terminate batch job (Y/N)? 
